{
    "SOURCES_PATH": ".",
    "LIBRARY_PATHS": [],
    "TARGET_PATH": "../endi/static/css",
    "OUTPUT_STYLES": "nested",
    "SOURCE_COMMENTS": false,
    "SOURCE_MAP": false,
    "EXCLUDES": [
    ]
}
